{
    "id": "0",
    "title": "this is my presentation",
    "description": "bla bla bla bla blabla",
    "slidArray": [
        {
            "id": "1",
            "title": "A",
            "txt": "1 some txt here for a video",
            "content_id":"1"
        },
        {
            "id": "2",
            "title": "B",
            "txt": "2 new slid no text",
	    "content_id":"2"
        },
        {
            "id": "3",
            "title": "C",
            "txt": "3 new slid no text",
	    "content_id":"3"
        },
        {
            "id": "4",
            "title": "D",
            "txt": "4 video here",
            "content_id":"4"
        }
    ]
}
